(kicad_sch (version 20211123) (generator eeschema)

  (uuid 700e8b73-5976-423f-a3f3-ab3d9f3e9760)

  (paper "A4")

  (lib_symbols
    (symbol "Connector:USB_B" (pin_names (offset 1.016)) (in_bom yes) (on_board yes)
      (property "Reference" "J" (id 0) (at -5.08 11.43 0)
        (effects (font (size 1.27 1.27)) (justify left))
      )
      (property "Value" "USB_B" (id 1) (at -5.08 8.89 0)
        (effects (font (size 1.27 1.27)) (justify left))
      )
      (property "Footprint" "" (id 2) (at 3.81 -1.27 0)
        (effects (font (size 1.27 1.27)) hide)
      )
      (property "Datasheet" " ~" (id 3) (at 3.81 -1.27 0)
        (effects (font (size 1.27 1.27)) hide)
      )
      (property "ki_keywords" "connector USB" (id 4) (at 0 0 0)
        (effects (font (size 1.27 1.27)) hide)
      )
      (property "ki_description" "USB Type B connector" (id 5) (at 0 0 0)
        (effects (font (size 1.27 1.27)) hide)
      )
      (property "ki_fp_filters" "USB*" (id 6) (at 0 0 0)
        (effects (font (size 1.27 1.27)) hide)
      )
      (symbol "USB_B_0_1"
        (rectangle (start -5.08 -7.62) (end 5.08 7.62)
          (stroke (width 0.254) (type default) (color 0 0 0 0))
          (fill (type background))
        )
        (circle (center -3.81 2.159) (radius 0.635)
          (stroke (width 0.254) (type default) (color 0 0 0 0))
          (fill (type outline))
        )
        (rectangle (start -3.81 5.588) (end -2.54 4.572)
          (stroke (width 0) (type default) (color 0 0 0 0))
          (fill (type outline))
        )
        (circle (center -0.635 3.429) (radius 0.381)
          (stroke (width 0.254) (type default) (color 0 0 0 0))
          (fill (type outline))
        )
        (rectangle (start -0.127 -7.62) (end 0.127 -6.858)
          (stroke (width 0) (type default) (color 0 0 0 0))
          (fill (type none))
        )
        (polyline
          (pts
            (xy -1.905 2.159)
            (xy 0.635 2.159)
          )
          (stroke (width 0.254) (type default) (color 0 0 0 0))
          (fill (type none))
        )
        (polyline
          (pts
            (xy -3.175 2.159)
            (xy -2.54 2.159)
            (xy -1.27 3.429)
            (xy -0.635 3.429)
          )
          (stroke (width 0.254) (type default) (color 0 0 0 0))
          (fill (type none))
        )
        (polyline
          (pts
            (xy -2.54 2.159)
            (xy -1.905 2.159)
            (xy -1.27 0.889)
            (xy 0 0.889)
          )
          (stroke (width 0.254) (type default) (color 0 0 0 0))
          (fill (type none))
        )
        (polyline
          (pts
            (xy 0.635 2.794)
            (xy 0.635 1.524)
            (xy 1.905 2.159)
            (xy 0.635 2.794)
          )
          (stroke (width 0.254) (type default) (color 0 0 0 0))
          (fill (type outline))
        )
        (polyline
          (pts
            (xy -4.064 4.318)
            (xy -2.286 4.318)
            (xy -2.286 5.715)
            (xy -2.667 6.096)
            (xy -3.683 6.096)
            (xy -4.064 5.715)
            (xy -4.064 4.318)
          )
          (stroke (width 0) (type default) (color 0 0 0 0))
          (fill (type none))
        )
        (rectangle (start 0.254 1.27) (end -0.508 0.508)
          (stroke (width 0.254) (type default) (color 0 0 0 0))
          (fill (type outline))
        )
        (rectangle (start 5.08 -2.667) (end 4.318 -2.413)
          (stroke (width 0) (type default) (color 0 0 0 0))
          (fill (type none))
        )
        (rectangle (start 5.08 -0.127) (end 4.318 0.127)
          (stroke (width 0) (type default) (color 0 0 0 0))
          (fill (type none))
        )
        (rectangle (start 5.08 4.953) (end 4.318 5.207)
          (stroke (width 0) (type default) (color 0 0 0 0))
          (fill (type none))
        )
      )
      (symbol "USB_B_1_1"
        (pin power_out line (at 7.62 5.08 180) (length 2.54)
          (name "VBUS" (effects (font (size 1.27 1.27))))
          (number "1" (effects (font (size 1.27 1.27))))
        )
        (pin bidirectional line (at 7.62 -2.54 180) (length 2.54)
          (name "D-" (effects (font (size 1.27 1.27))))
          (number "2" (effects (font (size 1.27 1.27))))
        )
        (pin bidirectional line (at 7.62 0 180) (length 2.54)
          (name "D+" (effects (font (size 1.27 1.27))))
          (number "3" (effects (font (size 1.27 1.27))))
        )
        (pin power_out line (at 0 -10.16 90) (length 2.54)
          (name "GND" (effects (font (size 1.27 1.27))))
          (number "4" (effects (font (size 1.27 1.27))))
        )
        (pin passive line (at -2.54 -10.16 90) (length 2.54)
          (name "Shield" (effects (font (size 1.27 1.27))))
          (number "5" (effects (font (size 1.27 1.27))))
        )
      )
    )
    (symbol "Device:Buzzer" (pin_names (offset 0.0254) hide) (in_bom yes) (on_board yes)
      (property "Reference" "BZ" (id 0) (at 3.81 1.27 0)
        (effects (font (size 1.27 1.27)) (justify left))
      )
      (property "Value" "Buzzer" (id 1) (at 3.81 -1.27 0)
        (effects (font (size 1.27 1.27)) (justify left))
      )
      (property "Footprint" "" (id 2) (at -0.635 2.54 90)
        (effects (font (size 1.27 1.27)) hide)
      )
      (property "Datasheet" "~" (id 3) (at -0.635 2.54 90)
        (effects (font (size 1.27 1.27)) hide)
      )
      (property "ki_keywords" "quartz resonator ceramic" (id 4) (at 0 0 0)
        (effects (font (size 1.27 1.27)) hide)
      )
      (property "ki_description" "Buzzer, polarized" (id 5) (at 0 0 0)
        (effects (font (size 1.27 1.27)) hide)
      )
      (property "ki_fp_filters" "*Buzzer*" (id 6) (at 0 0 0)
        (effects (font (size 1.27 1.27)) hide)
      )
      (symbol "Buzzer_0_1"
        (arc (start 0 -3.175) (mid 3.175 0) (end 0 3.175)
          (stroke (width 0) (type default) (color 0 0 0 0))
          (fill (type none))
        )
        (polyline
          (pts
            (xy -1.651 1.905)
            (xy -1.143 1.905)
          )
          (stroke (width 0) (type default) (color 0 0 0 0))
          (fill (type none))
        )
        (polyline
          (pts
            (xy -1.397 2.159)
            (xy -1.397 1.651)
          )
          (stroke (width 0) (type default) (color 0 0 0 0))
          (fill (type none))
        )
        (polyline
          (pts
            (xy 0 3.175)
            (xy 0 -3.175)
          )
          (stroke (width 0) (type default) (color 0 0 0 0))
          (fill (type none))
        )
      )
      (symbol "Buzzer_1_1"
        (pin passive line (at -2.54 2.54 0) (length 2.54)
          (name "-" (effects (font (size 1.27 1.27))))
          (number "1" (effects (font (size 1.27 1.27))))
        )
        (pin passive line (at -2.54 -2.54 0) (length 2.54)
          (name "+" (effects (font (size 1.27 1.27))))
          (number "2" (effects (font (size 1.27 1.27))))
        )
      )
    )
    (symbol "Device:R" (pin_numbers hide) (pin_names (offset 0)) (in_bom yes) (on_board yes)
      (property "Reference" "R" (id 0) (at 2.032 0 90)
        (effects (font (size 1.27 1.27)))
      )
      (property "Value" "R" (id 1) (at 0 0 90)
        (effects (font (size 1.27 1.27)))
      )
      (property "Footprint" "" (id 2) (at -1.778 0 90)
        (effects (font (size 1.27 1.27)) hide)
      )
      (property "Datasheet" "~" (id 3) (at 0 0 0)
        (effects (font (size 1.27 1.27)) hide)
      )
      (property "ki_keywords" "R res resistor" (id 4) (at 0 0 0)
        (effects (font (size 1.27 1.27)) hide)
      )
      (property "ki_description" "Resistor" (id 5) (at 0 0 0)
        (effects (font (size 1.27 1.27)) hide)
      )
      (property "ki_fp_filters" "R_*" (id 6) (at 0 0 0)
        (effects (font (size 1.27 1.27)) hide)
      )
      (symbol "R_0_1"
        (rectangle (start -1.016 -2.54) (end 1.016 2.54)
          (stroke (width 0.254) (type default) (color 0 0 0 0))
          (fill (type none))
        )
      )
      (symbol "R_1_1"
        (pin passive line (at 0 3.81 270) (length 1.27)
          (name "~" (effects (font (size 1.27 1.27))))
          (number "1" (effects (font (size 1.27 1.27))))
        )
        (pin passive line (at 0 -3.81 90) (length 1.27)
          (name "~" (effects (font (size 1.27 1.27))))
          (number "2" (effects (font (size 1.27 1.27))))
        )
      )
    )
    (symbol "Sensor_Optical:LDR03" (pin_numbers hide) (pin_names (offset 0)) (in_bom yes) (on_board yes)
      (property "Reference" "R" (id 0) (at -5.08 0 90)
        (effects (font (size 1.27 1.27)))
      )
      (property "Value" "LDR03" (id 1) (at 1.905 0 90)
        (effects (font (size 1.27 1.27)) (justify top))
      )
      (property "Footprint" "OptoDevice:R_LDR_10x8.5mm_P7.6mm_Vertical" (id 2) (at 4.445 0 90)
        (effects (font (size 1.27 1.27)) hide)
      )
      (property "Datasheet" "http://www.elektronica-componenten.nl/WebRoot/StoreNL/Shops/61422969/54F1/BA0C/C664/31B9/2173/C0A8/2AB9/2AEF/LDR03IMP.pdf" (id 3) (at 0 -1.27 0)
        (effects (font (size 1.27 1.27)) hide)
      )
      (property "ki_keywords" "light dependent photo resistor LDR" (id 4) (at 0 0 0)
        (effects (font (size 1.27 1.27)) hide)
      )
      (property "ki_description" "light dependent resistor" (id 5) (at 0 0 0)
        (effects (font (size 1.27 1.27)) hide)
      )
      (property "ki_fp_filters" "R*LDR*10x8.5mm*P7.6mm*" (id 6) (at 0 0 0)
        (effects (font (size 1.27 1.27)) hide)
      )
      (symbol "LDR03_0_1"
        (rectangle (start -1.016 2.54) (end 1.016 -2.54)
          (stroke (width 0.254) (type default) (color 0 0 0 0))
          (fill (type none))
        )
        (polyline
          (pts
            (xy -1.524 -2.286)
            (xy -4.064 0.254)
          )
          (stroke (width 0) (type default) (color 0 0 0 0))
          (fill (type none))
        )
        (polyline
          (pts
            (xy -1.524 -2.286)
            (xy -2.286 -2.286)
          )
          (stroke (width 0) (type default) (color 0 0 0 0))
          (fill (type none))
        )
        (polyline
          (pts
            (xy -1.524 -2.286)
            (xy -1.524 -1.524)
          )
          (stroke (width 0) (type default) (color 0 0 0 0))
          (fill (type none))
        )
        (polyline
          (pts
            (xy -1.524 -0.762)
            (xy -4.064 1.778)
          )
          (stroke (width 0) (type default) (color 0 0 0 0))
          (fill (type none))
        )
        (polyline
          (pts
            (xy -1.524 -0.762)
            (xy -2.286 -0.762)
          )
          (stroke (width 0) (type default) (color 0 0 0 0))
          (fill (type none))
        )
        (polyline
          (pts
            (xy -1.524 -0.762)
            (xy -1.524 0)
          )
          (stroke (width 0) (type default) (color 0 0 0 0))
          (fill (type none))
        )
      )
      (symbol "LDR03_1_1"
        (pin passive line (at 0 3.81 270) (length 1.27)
          (name "~" (effects (font (size 1.27 1.27))))
          (number "1" (effects (font (size 1.27 1.27))))
        )
        (pin passive line (at 0 -3.81 90) (length 1.27)
          (name "~" (effects (font (size 1.27 1.27))))
          (number "2" (effects (font (size 1.27 1.27))))
        )
      )
    )
    (symbol "Transistor_BJT:BC550" (pin_names (offset 0) hide) (in_bom yes) (on_board yes)
      (property "Reference" "Q" (id 0) (at 5.08 1.905 0)
        (effects (font (size 1.27 1.27)) (justify left))
      )
      (property "Value" "BC550" (id 1) (at 5.08 0 0)
        (effects (font (size 1.27 1.27)) (justify left))
      )
      (property "Footprint" "Package_TO_SOT_THT:TO-92_Inline" (id 2) (at 5.08 -1.905 0)
        (effects (font (size 1.27 1.27) italic) (justify left) hide)
      )
      (property "Datasheet" "https://www.onsemi.com/pub/Collateral/BC550-D.pdf" (id 3) (at 0 0 0)
        (effects (font (size 1.27 1.27)) (justify left) hide)
      )
      (property "ki_keywords" "NPN Transistor" (id 4) (at 0 0 0)
        (effects (font (size 1.27 1.27)) hide)
      )
      (property "ki_description" "0.1A Ic, 45V Vce, Small Signal NPN Transistor, TO-92" (id 5) (at 0 0 0)
        (effects (font (size 1.27 1.27)) hide)
      )
      (property "ki_fp_filters" "TO?92*" (id 6) (at 0 0 0)
        (effects (font (size 1.27 1.27)) hide)
      )
      (symbol "BC550_0_1"
        (polyline
          (pts
            (xy 0 0)
            (xy 0.635 0)
          )
          (stroke (width 0) (type default) (color 0 0 0 0))
          (fill (type none))
        )
        (polyline
          (pts
            (xy 0.635 0.635)
            (xy 2.54 2.54)
          )
          (stroke (width 0) (type default) (color 0 0 0 0))
          (fill (type none))
        )
        (polyline
          (pts
            (xy 0.635 -0.635)
            (xy 2.54 -2.54)
            (xy 2.54 -2.54)
          )
          (stroke (width 0) (type default) (color 0 0 0 0))
          (fill (type none))
        )
        (polyline
          (pts
            (xy 0.635 1.905)
            (xy 0.635 -1.905)
            (xy 0.635 -1.905)
          )
          (stroke (width 0.508) (type default) (color 0 0 0 0))
          (fill (type none))
        )
        (polyline
          (pts
            (xy 1.27 -1.778)
            (xy 1.778 -1.27)
            (xy 2.286 -2.286)
            (xy 1.27 -1.778)
            (xy 1.27 -1.778)
          )
          (stroke (width 0) (type default) (color 0 0 0 0))
          (fill (type outline))
        )
        (circle (center 1.27 0) (radius 2.8194)
          (stroke (width 0.254) (type default) (color 0 0 0 0))
          (fill (type none))
        )
      )
      (symbol "BC550_1_1"
        (pin passive line (at 2.54 5.08 270) (length 2.54)
          (name "C" (effects (font (size 1.27 1.27))))
          (number "1" (effects (font (size 1.27 1.27))))
        )
        (pin input line (at -5.08 0 0) (length 5.08)
          (name "B" (effects (font (size 1.27 1.27))))
          (number "2" (effects (font (size 1.27 1.27))))
        )
        (pin passive line (at 2.54 -5.08 90) (length 2.54)
          (name "E" (effects (font (size 1.27 1.27))))
          (number "3" (effects (font (size 1.27 1.27))))
        )
      )
    )
  )

  (junction (at 113.03 110.49) (diameter 0) (color 0 0 0 0)
    (uuid 3c270e96-4dc2-4a6c-8490-56bc7cc1a259)
  )
  (junction (at 83.82 107.95) (diameter 0) (color 0 0 0 0)
    (uuid 6740004b-8f36-42fe-8246-d09d1b4fc817)
  )
  (junction (at 113.03 120.65) (diameter 0) (color 0 0 0 0)
    (uuid 76f74d98-fc44-4507-bc3c-28438ab8899c)
  )
  (junction (at 83.82 125.73) (diameter 0) (color 0 0 0 0)
    (uuid e60032fe-569f-49a0-b9eb-0ccb3645d17b)
  )

  (no_connect (at 57.15 123.19) (uuid d96da0be-cc1d-4830-a53e-8454a16005e6))
  (no_connect (at 67.31 113.03) (uuid d96da0be-cc1d-4830-a53e-8454a16005e6))
  (no_connect (at 67.31 115.57) (uuid d96da0be-cc1d-4830-a53e-8454a16005e6))

  (wire (pts (xy 83.82 107.95) (xy 83.82 110.49))
    (stroke (width 0) (type default) (color 0 0 0 0))
    (uuid 09a0f262-6e32-476c-8667-96fa70d23051)
  )
  (wire (pts (xy 91.44 120.65) (xy 99.06 120.65))
    (stroke (width 0) (type default) (color 0 0 0 0))
    (uuid 12b82543-3ecb-47ee-bcca-e575a16471b0)
  )
  (wire (pts (xy 113.03 120.65) (xy 113.03 123.19))
    (stroke (width 0) (type default) (color 0 0 0 0))
    (uuid 1a4c3853-9127-42ec-bb89-2e679b6c6d47)
  )
  (wire (pts (xy 83.82 125.73) (xy 83.82 130.81))
    (stroke (width 0) (type default) (color 0 0 0 0))
    (uuid 24b9b982-3488-4710-ae77-95501131362f)
  )
  (wire (pts (xy 83.82 107.95) (xy 113.03 107.95))
    (stroke (width 0) (type default) (color 0 0 0 0))
    (uuid 2a6db949-e4b1-492a-8f39-e38e7722c1dd)
  )
  (wire (pts (xy 113.03 107.95) (xy 113.03 110.49))
    (stroke (width 0) (type default) (color 0 0 0 0))
    (uuid 2ea267a5-5a60-44aa-940d-e746e2f12053)
  )
  (wire (pts (xy 67.31 107.95) (xy 83.82 107.95))
    (stroke (width 0) (type default) (color 0 0 0 0))
    (uuid 42014fe4-fa82-4498-a98e-e7d023a00d48)
  )
  (wire (pts (xy 106.68 120.65) (xy 113.03 120.65))
    (stroke (width 0) (type default) (color 0 0 0 0))
    (uuid 643f3034-e69b-4546-bc5a-233791393d02)
  )
  (wire (pts (xy 83.82 130.81) (xy 113.03 130.81))
    (stroke (width 0) (type default) (color 0 0 0 0))
    (uuid 746ce6e0-1559-47ab-8246-ae0a60354f78)
  )
  (wire (pts (xy 83.82 125.73) (xy 59.69 125.73))
    (stroke (width 0) (type default) (color 0 0 0 0))
    (uuid 8f502845-30d4-43fc-906a-cc33d1108d0e)
  )
  (wire (pts (xy 113.03 120.65) (xy 113.03 118.11))
    (stroke (width 0) (type default) (color 0 0 0 0))
    (uuid 9d2b9b04-fe7d-448e-9a82-41939227115f)
  )
  (wire (pts (xy 113.03 110.49) (xy 113.03 111.76))
    (stroke (width 0) (type default) (color 0 0 0 0))
    (uuid b5ffa65e-fae3-424f-b25f-726439228bbd)
  )
  (wire (pts (xy 59.69 123.19) (xy 59.69 125.73))
    (stroke (width 0) (type default) (color 0 0 0 0))
    (uuid e309c781-0853-4635-a8c2-aae57f84cee7)
  )

  (symbol (lib_id "Device:R") (at 113.03 114.3 0) (unit 1)
    (in_bom yes) (on_board yes) (fields_autoplaced)
    (uuid 25f78f59-c6f2-4764-b3f1-43dd4e0703a1)
    (property "Reference" "R2" (id 0) (at 115.57 113.0299 0)
      (effects (font (size 1.27 1.27)) (justify left))
    )
    (property "Value" "" (id 1) (at 115.57 115.5699 0)
      (effects (font (size 1.27 1.27)) (justify left))
    )
    (property "Footprint" "" (id 2) (at 111.252 114.3 90)
      (effects (font (size 1.27 1.27)) hide)
    )
    (property "Datasheet" "~" (id 3) (at 113.03 114.3 0)
      (effects (font (size 1.27 1.27)) hide)
    )
    (pin "1" (uuid 12d90307-810b-4e5b-a7d5-e55249ce36b2))
    (pin "2" (uuid 538f77f1-59a0-4430-856d-900f460a4d91))
  )

  (symbol (lib_id "Sensor_Optical:LDR03") (at 113.03 127 0) (unit 1)
    (in_bom yes) (on_board yes)
    (uuid 26d0b742-f982-46d7-b7c1-eefb895e58ea)
    (property "Reference" "R3" (id 0) (at 115.57 125.7299 0)
      (effects (font (size 1.27 1.27)) (justify left))
    )
    (property "Value" "" (id 1) (at 115.57 128.2699 0)
      (effects (font (size 1.27 1.27)) (justify left))
    )
    (property "Footprint" "" (id 2) (at 117.475 127 90)
      (effects (font (size 1.27 1.27)) hide)
    )
    (property "Datasheet" "http://www.elektronica-componenten.nl/WebRoot/StoreNL/Shops/61422969/54F1/BA0C/C664/31B9/2173/C0A8/2AB9/2AEF/LDR03IMP.pdf" (id 3) (at 113.03 128.27 0)
      (effects (font (size 1.27 1.27)) hide)
    )
    (pin "1" (uuid acd4d352-eb71-440d-8235-d02d523bf132))
    (pin "2" (uuid e8e0df7e-11dd-4d47-a8fb-c475efc235aa))
  )

  (symbol (lib_id "Connector:USB_B") (at 59.69 113.03 0) (unit 1)
    (in_bom yes) (on_board yes) (fields_autoplaced)
    (uuid 480b8c10-0042-4b02-a053-102576c10cda)
    (property "Reference" "J1" (id 0) (at 59.69 100.33 0))
    (property "Value" "" (id 1) (at 59.69 102.87 0))
    (property "Footprint" "" (id 2) (at 63.5 114.3 0)
      (effects (font (size 1.27 1.27)) hide)
    )
    (property "Datasheet" " ~" (id 3) (at 63.5 114.3 0)
      (effects (font (size 1.27 1.27)) hide)
    )
    (pin "1" (uuid 82246804-d199-4fba-8e35-ec58cf360728))
    (pin "2" (uuid 4a44499d-b9a4-4900-8c70-76a748c51786))
    (pin "3" (uuid 6b7fdff6-faab-4707-b548-bb8546eec930))
    (pin "4" (uuid b7604be6-889a-420c-ba8a-5721b44bdc78))
    (pin "5" (uuid 1dd66f34-0cab-4702-97cd-c2531a2089e4))
  )

  (symbol (lib_id "Transistor_BJT:BC550") (at 86.36 120.65 0) (mirror y) (unit 1)
    (in_bom yes) (on_board yes) (fields_autoplaced)
    (uuid 5856ea5d-6736-494b-9c54-f9435d5be89f)
    (property "Reference" "Q1" (id 0) (at 81.28 119.3799 0)
      (effects (font (size 1.27 1.27)) (justify left))
    )
    (property "Value" "" (id 1) (at 81.28 121.9199 0)
      (effects (font (size 1.27 1.27)) (justify left))
    )
    (property "Footprint" "" (id 2) (at 81.28 122.555 0)
      (effects (font (size 1.27 1.27) italic) (justify left) hide)
    )
    (property "Datasheet" "https://www.onsemi.com/pub/Collateral/BC550-D.pdf" (id 3) (at 86.36 120.65 0)
      (effects (font (size 1.27 1.27)) (justify left) hide)
    )
    (pin "1" (uuid 0658776c-1eb3-4a72-9c52-2725eacbebf9))
    (pin "2" (uuid a27fbcca-b7ab-4dc2-81c6-8e67c44fac01))
    (pin "3" (uuid 59c2d775-b8e9-4d79-b123-58448a05a8a7))
  )

  (symbol (lib_id "Device:Buzzer") (at 86.36 113.03 0) (unit 1)
    (in_bom yes) (on_board yes) (fields_autoplaced)
    (uuid a306a000-5110-491a-933a-ab6265c4f5bd)
    (property "Reference" "BZ1" (id 0) (at 90.17 111.7599 0)
      (effects (font (size 1.27 1.27)) (justify left))
    )
    (property "Value" "" (id 1) (at 90.17 114.2999 0)
      (effects (font (size 1.27 1.27)) (justify left))
    )
    (property "Footprint" "" (id 2) (at 85.725 110.49 90)
      (effects (font (size 1.27 1.27)) hide)
    )
    (property "Datasheet" "~" (id 3) (at 85.725 110.49 90)
      (effects (font (size 1.27 1.27)) hide)
    )
    (pin "1" (uuid e961597b-0d47-4ff4-ae5c-c820118f17e7))
    (pin "2" (uuid c9f74bb0-f887-4ee1-8991-9016726bda69))
  )

  (symbol (lib_id "Device:R") (at 102.87 120.65 270) (unit 1)
    (in_bom yes) (on_board yes) (fields_autoplaced)
    (uuid c20ad06b-f25a-40c1-b4ad-aa220bf32dd7)
    (property "Reference" "R1" (id 0) (at 102.87 114.3 90))
    (property "Value" "1KΩ" (id 1) (at 102.87 116.84 90))
    (property "Footprint" "" (id 2) (at 102.87 118.872 90)
      (effects (font (size 1.27 1.27)) hide)
    )
    (property "Datasheet" "~" (id 3) (at 102.87 120.65 0)
      (effects (font (size 1.27 1.27)) hide)
    )
    (pin "1" (uuid b2b50516-6739-48d7-9479-854f44333dae))
    (pin "2" (uuid cf252227-39b7-428e-b500-c02f532bd8d6))
  )

  (sheet_instances
    (path "/" (page "1"))
  )

  (symbol_instances
    (path "/a306a000-5110-491a-933a-ab6265c4f5bd"
      (reference "BZ1") (unit 1) (value "Buzzer") (footprint "Buzzer_Beeper:Buzzer_15x7.5RM7.6")
    )
    (path "/480b8c10-0042-4b02-a053-102576c10cda"
      (reference "J1") (unit 1) (value "USB_B") (footprint "Connector_USB:USB_B_OST_USB-B1HSxx_Horizontal")
    )
    (path "/5856ea5d-6736-494b-9c54-f9435d5be89f"
      (reference "Q1") (unit 1) (value "BC550") (footprint "Package_TO_SOT_THT:TO-92_Inline")
    )
    (path "/c20ad06b-f25a-40c1-b4ad-aa220bf32dd7"
      (reference "R1") (unit 1) (value "1KΩ") (footprint "Resistor_THT:R_Axial_DIN0207_L6.3mm_D2.5mm_P10.16mm_Horizontal")
    )
    (path "/25f78f59-c6f2-4764-b3f1-43dd4e0703a1"
      (reference "R2") (unit 1) (value "10KΩ") (footprint "Resistor_THT:R_Axial_DIN0207_L6.3mm_D2.5mm_P10.16mm_Horizontal")
    )
    (path "/26d0b742-f982-46d7-b7c1-eefb895e58ea"
      (reference "R3") (unit 1) (value "LDR") (footprint "OptoDevice:R_LDR_12x10.8mm_P9.0mm_Vertical")
    )
  )
)
